<svg width="400" height="400" xmlns="http://www.w3.org/2000/svg">
 <!-- Created with SVG-edit - http://svg-edit.googlecode.com/ -->
 <g>
  <title>Vrstva 3</title>
  <ellipse stroke="#3d2914" fill="#3d2914" stroke-width="5" cx="200" cy="200" id="svg_1" rx="195" ry="195"/>
  <text fill="#ffffff" stroke="#ffffff" stroke-width="0" stroke-linejoin="null" stroke-linecap="null" x="295.551052" y="199.051765" id="svg_2" font-size="24" font-family="Sans-serif" text-anchor="middle" xml:space="preserve" transform="matrix(13.482992918688797,0,0,12.66083555611525,-3793.6665265613033,-2211.029482517274) " font-weight="bold">f</text>
 </g>
</svg>